…
To see if the amount of bags is getting lower through time lets make the equivalent of a pivot table in excel

So instead of dragging years to ‘rows’ and instead of entering in count of in ‘values’ we use group_by and summarise to create a table called table.bags.by.year

table.bags.by.year <-bags %>% 
  group_by(year) %>%
  summarise(count_bags=n()) 

table.bags.by.year

## # A tibble: 121 x 2
##     year count_bags
##    <int>      <int>
##  1  1897          1
##  2  1898          6
##  3  1899          7
##  4  1900          3
##  5  1901         10
##  6  1902          5
##  7  1903          7
##  8  1904          4
##  9  1905         10
## 10  1906          9
## # ... with 111 more rows

Now the next thing we would like to do is view our table from largest count_bags to smallest count_bags we can do this as follows

table.bags.by.year %>% 
  arrange(desc(count_bags))

## # A tibble: 121 x 2
##     year count_bags
##    <int>      <int>
##  1  1993        181
##  2  1992        175
##  3  1991        174
##  4  1987        154
##  5  1994        151
##  6  1995        151
##  7  1982        138
##  8  1996        138
##  9  1985        136
## 10  1978        132
## # ... with 111 more rows
…
