…
Ok so now we have all that, what is our next issue? We need to get our data into a format that is easier to think about when plotting, to do this before we had to use functions like spread and gather which were not as intuitive as the new ones pivot_longer() and pivot_wider()

So how do we do that, well first we have to install the development version of tidyr hopefully this reminds people of what they usually might be coming from (excel)

library(tidyr)
data_fr%>%
  tidyr::pivot_longer(-OPPONENT, names_to="scoring_method", values_to="pertcentage")

## # A tibble: 42 x 3
##    OPPONENT            scoring_method     pertcentage
##    <chr>               <chr>                    <dbl>
##  1 St Kilda, round 14  FORWARD.50                30.4
##  2 St Kilda, round 14  ATTACKING.MIDFIELD        33.9
##  3 St Kilda, round 14  CENTRE.BOUNCE              7  
##  4 St Kilda, round 14  DEFENSIVE.MIDFIELD        21.7
##  5 St Kilda, round 14  DEFENSIVE.50               7  
##  6 St Kilda, round 14  SCORE.PER.IN50            48.4
##  7 St Kilda, round 14  GOAL.PER.IN50             27.4
##  8 Melbourne, round 15 FORWARD.50                15  
##  9 Melbourne, round 15 ATTACKING.MIDFIELD        37.4
## 10 Melbourne, round 15 CENTRE.BOUNCE             30.8
## # … with 32 more rows
…
