…
So what we can see here is that the plot has been re-ordered even though our dataframe is in the order that we want.

CDExp_17%>%
  mutate(totalexpected=H_CD_Exp + A_CD_Exp)%>%
  group_by(Year, Round)%>%
  summarise(meanexpected=mean(totalexpected))%>%
  unite("year_round", Year, Round)

## # A tibble: 55 x 2
##    year_round meanexpected
##    <chr>             <dbl>
##  1 2017_1             193.
##  2 2017_2             191.
##  3 2017_3             181.
##  4 2017_4             184.
##  5 2017_5             188.
##  6 2017_6             181.
##  7 2017_7             191.
##  8 2017_8             178.
##  9 2017_9             180.
## 10 2017_10            186.
## # … with 45 more rows
…
