…
From here we can see that not all the team names are aligned so we need to fix them up, as an example we have the Adelaide Crows in 2017 and Adelaide in 2018. When we try and join to Squiggle we will miss out some games in 2017 because its trying to match Adelaide (from squiggle) with Adelaide Crows from betfair.

To confirm this we can use below

df_bookie%>%filter(Team %in% c("Adelaide Crows", "Adelaide"))

## # A tibble: 29 x 3
##    Date       Team           WAP               
##    <date>     <chr>          <chr>             
##  1 2017-04-01 Adelaide Crows 1.8413133095902039
##  2 2017-04-15 Adelaide Crows 1.1876003204498842
##  3 2017-04-22 Adelaide Crows 1.2818905566923648
##  4 2017-05-06 Adelaide Crows 1.1829114641026119
##  5 2017-05-27 Adelaide Crows 1.19012452955724  
##  6 2017-06-02 Adelaide Crows 1.817133213487137 
##  7 2017-06-09 Adelaide Crows 1.1764993689503755
##  8 2017-06-22 Adelaide Crows 1.116772609240404 
##  9 2017-07-30 Adelaide Crows 1.5478971535189769
## 10 2017-08-18 Adelaide Crows 1.6920023163626901
## # … with 19 more rows

inner_join(df_bookie,df3, by=c("Team","Date"))%>%
  filter(Team %in% c("Adelaide Crows", "Adelaide"))

## # A tibble: 195 x 12
##    Date       Team  WAP   source correct hconfidence margin   err tip  
##    <date>     <chr> <chr> <chr>    <int>       <dbl>  <dbl> <dbl> <chr>
##  1 2018-04-07 Adel… 1.36… Squig…       1        31     24    25   Adel…
##  2 2018-04-07 Adel… 1.36… Aggre…       1        33.7   16.7  32.3 Adel…
##  3 2018-04-07 Adel… 1.36… The A…       1        34.8   14    35   Adel…
##  4 2018-04-07 Adel… 1.36… Punte…       1        27.1   NA    NA   Adel…
##  5 2018-04-07 Adel… 1.36… Graft        1        29.1   21    28   Adel…
##  6 2018-04-07 Adel… 1.36… PlusS…       1        42.2   12    37   Adel…
##  7 2018-04-07 Adel… 1.36… Matte…       1        31.1   18.9  30.1 Adel…
##  8 2018-04-07 Adel… 1.36… Footy…       1        33     22    27   Adel…
##  9 2018-04-07 Adel… 1.36… Live …       1        38.2   11    38   Adel…
## 10 2018-04-07 Adel… 1.36… Statt…       1        40.3   11    38   Adel…
## # … with 185 more rows, and 3 more variables: round <int>, year <int>,
## #   H_A <chr>
…
