…
  #combine, name, and make it a tibble
  player_information <- cbind.fill(player, playing.for, games,born, weight, height,draft_position, club_drafted, position)
  
  player_information <- as.tibble(player_information)
  
  # print(x)
  # return(x)
  return(player_information)
}
footywire <- purrr::map_df(url_players, player_info)
footywire

## # A tibble: 238 x 9
##    V1      value   V3     V4      V5    V6    V7         V8      V9        
##    <chr>   <chr>   <chr>  <chr>   <chr> <chr> <chr>      <chr>   <chr>     
##  1 Corey … West C… <NA>   Februa… " 86" " 18… Round 2, … West C… Defender,…
##  2 Damien… West C… "54 "  March … " 75" " 18… Round 4, … Collin… Midfield  
##  3 John A… West C… <NA>   June 1… " 80" " 17… <NA>       <NA>    Playing H…
##  4 David … West C… "3 "   June 1… " 93" " 19… Round 3, … West C… Playing H…
##  5 Steven… West C… "79 "  Januar… " 83" " 18… Round 1, … West C… Forward   
##  6 Ashley… West C… <NA>   April … " 86" " 18… Round 2, … West C… Midfield  
##  7 Jason … Sydney… "193 " Novemb… " 10… " 20… Pick #1 1… West C… Ruck      
##  8 Drew B… West C… "265 " Februa… " 89" " 18… Pick #1 1… West C… Defender,…
##  9 Adrian… West C… <NA>   Decemb… " 85" " 17… <NA>       <NA>    Playing H…
## 10 Glen B… West C… <NA>   June 1… " 95" " 19… <NA>       <NA>    Playing H…
## # … with 228 more rows

names(footywire) <- c("player", "club", "games","born","weight","height",  "draft_position", "club_drafted", "position")
df_replace<-footywire%>%filter(!position %in% c("Midfield", "Defender", "Defender, Forward", "Defender, Midfield", 
                                                "Forward", "Forward, Ruck", "Midfield, Forward", "Ruck"))%>%
  select(position)

footywire_eagles<-footywire%>%naniar::replace_with_na(replace=list(position=df_replace))
footywire_eagles

## # A tibble: 238 x 9
##    player club  games born  weight height draft_position club_drafted
##    <chr>  <chr> <chr> <chr> <chr>  <chr>  <chr>          <chr>       
##  1 Corey… West… <NA>  Febr… " 86"  " 185" Round 2, Pick… West Coast …
##  2 Damie… West… "54 " Marc… " 75"  " 181" Round 4, Pick… Collingwood…
##  3 John … West… <NA>  June… " 80"  " 178" <NA>           <NA>        
##  4 David… West… "3 "  June… " 93"  " 194" Round 3, Pick… West Coast …
##  5 Steve… West… "79 " Janu… " 83"  " 180" Round 1, Pick… West Coast …
##  6 Ashle… West… <NA>  Apri… " 86"  " 188" Round 2, Pick… West Coast …
##  7 Jason… Sydn… "193… Nove… " 104" " 201" Pick #1 1991 … West Coast …
##  8 Drew … West… "265… Febr… " 89"  " 184" Pick #1 1992 … West Coast …
##  9 Adria… West… <NA>  Dece… " 85"  " 177" <NA>           <NA>        
## 10 Glen … West… <NA>  June… " 95"  " 195" <NA>           <NA>        
## # … with 228 more rows, and 1 more variable: position <chr>
…
