…
What this means is that in 2010 we had 2 players named Scott Tompson and they played for different teams.

But we have to manually recode this, so to find out how many players we would have to do this for we can do this by just filtering out player_counts>1 i.e. when there are multiple in the same year but for different teams.

df%>%distinct(Season, Player, Team)%>%
    group_by(Season, Player)%>%
    summarise(player_counts=n())%>%
    arrange(desc(player_counts))%>%filter(player_counts>1)

## # A tibble: 21 x 3
## # Groups:   Season [9]
##    Season Player         player_counts
##     <dbl> <chr>                  <int>
##  1   2010 Scott Thompson             2
##  2   2011 Mitchell Brown             2
##  3   2011 Scott Thompson             2
##  4   2011 Tom Lynch                  2
##  5   2012 Mitchell Brown             2
##  6   2012 Scott Thompson             2
##  7   2012 Tom Lynch                  2
##  8   2013 Mitchell Brown             2
##  9   2013 Scott Thompson             2
## 10   2013 Tom Lynch                  2
## # … with 11 more rows
…
df_check<-df%>%left_join(df2,by ="Player")

df_check%>%
  distinct(Player, id, Team, Season)%>%
  arrange(Player)%>%
  distinct(Player, id, Team)%>%
  group_by(Player, id)%>%
  summarise(count_player=n())%>%
  arrange(desc(count_player))%>%
  filter(count_player>1)

## # A tibble: 320 x 3
## # Groups:   Player [320]
##    Player           id    count_player
##    <chr>            <fct>        <int>
##  1 Andrejs Everitt  274              3
##  2 Ben Hudson       283              3
##  3 Jed Lamb         898              3
##  4 Jeremy Laidler   570              3
##  5 Jonathan Giles   739              3
##  6 Jonathan Simpkin 800              3
##  7 Josh Caddy       724              3
##  8 Koby Stevens     528              3
##  9 Kyle Cheney      540              3
## 10 Matthew Spangher 360              3
## # … with 310 more rows
…
