…
## Getting data from footywire.com

## Finished getting data

df<-df%>%
      filter(Season != 2018) #filters out the 2018 data (incomeplete that was downloaded when installing fitzRoy for first time) 
df2<-rbind(df, df1) #stacks the datasets on top of each other

  df2%>%
    select(Season, Round, K,HB, Team, Opposition, Date) %>%
    group_by(Season, Round, Team, Opposition, Date)%>%
    summarise(tk=sum(K), thb=sum(HB)) %>%
    mutate(hb2k=thb/tk)

## # A tibble: 3,392 x 8
## # Groups:   Season, Round, Team, Opposition [3,390]
##    Season Round             Team   Opposition Date          tk   thb  hb2k
##     <dbl> <chr>             <chr>  <chr>      <date>     <int> <int> <dbl>
##  1   2010 Elimination Final Carlt~ Sydney     2010-09-05   191   128 0.670
##  2   2010 Elimination Final Frema~ Hawthorn   2010-09-04   216   113 0.523
##  3   2010 Elimination Final Hawth~ Fremantle  2010-09-04   197   148 0.751
##  4   2010 Elimination Final Sydney Carlton    2010-09-05   173   177 1.02 
##  5   2010 Grand Final       Colli~ St Kilda   2010-09-25   198   128 0.646
##  6   2010 Grand Final       Colli~ St Kilda   2010-10-02   250   129 0.516
##  7   2010 Grand Final       St Ki~ Collingwo~ 2010-09-25   193   145 0.751
##  8   2010 Grand Final       St Ki~ Collingwo~ 2010-10-02   178   148 0.831
##  9   2010 Preliminary Final Colli~ Geelong    2010-09-17   228   101 0.443
## 10   2010 Preliminary Final Geelo~ Collingwo~ 2010-09-17   179   229 1.28 
## # ... with 3,382 more rows
…
