…
Step Three - Create the grouped data group_by

Now this might seem a bit weird, because on first look it would seem as though group_by doesn’t do anything.

df%>%
  select(First.name, Surname, Season, Goals)%>%
  group_by(Season)

## # A tibble: 603,289 x 4
## # Groups:   Season [121]
##    First.name Surname   Season Goals
##    <fct>      <fct>      <int> <int>
##  1 Bill       Ahern       1897     0
##  2 Jimmy      Aitken      1897     0
##  3 Bob        Armstrong   1897     0
##  4 Tom        Blake       1897     0
##  5 Otto       Buck        1897     0
##  6 Bob        Cameron     1897     0
##  7 Bill       Casey       1897     0
##  8 Arthur     Cummins     1897     0
##  9 Henry      Dunne       1897     0
## 10 Brook      Hannah      1897     0
## # ... with 603,279 more rows
…
length(unique(df$Season))

## [1] 121

What this does is adds a grouping structure to our data, which means instead of operations acting element wise like they did earlier now operations can happen by group.

So why would you want to group data? Well lots of interesting things are done on a group_by basis. For example we might be interested in goal kicking trends by Season Or * by round * by Playing.For * by opponent * by wins and losses

We can also group_by more than one thing. For example what if we wanted by Season and Round

df%>%
  select(Season,Round, Goals, Behinds)%>%
  group_by(Season, Round)

## # A tibble: 603,289 x 4
## # Groups:   Season, Round [2,769]
##    Season Round Goals Behinds
##     <int> <fct> <int>   <int>
##  1   1897 1         0       0
##  2   1897 1         0       0
##  3   1897 1         0       0
##  4   1897 1         0       0
##  5   1897 1         0       0
##  6   1897 1         0       0
##  7   1897 1         0       0
##  8   1897 1         0       0
##  9   1897 1         0       0
## 10   1897 1         0       0
## # ... with 603,279 more rows

What we can now see is that we have grouped by 2 variables (Season, Round) and have formed 769 groups. Groups:   Season, Round [2,769]

Step Four - Take the grouped data and summarise it

So recall earlier we grouped our data by year so lets summarise it.

df%>% 
  select(First.name, Surname, Season, Goals)%>%
  group_by(Season)%>%
  summarise(total_goals=sum(Goals))

## # A tibble: 121 x 2
##    Season total_goals
##     <int>       <int>
##  1   1897         640
##  2   1898         721
##  3   1899         691
##  4   1900         750
##  5   1901         847
##  6   1902         878
##  7   1903         890
##  8   1904         949
##  9   1905         984
## 10   1906        1088
## # ... with 111 more rows

Ok that doesn’t quite seem like what we were thinking we wanted the total_goals of Tony Lockett by season, but all we got was Season total goals.

Well duh! We only did a group_by by Season, we should have done it by Season, First.name, Surname should we have?

Lets check.

df%>%
  select(Season, First.name, Surname, Goals)%>%
  group_by(Season, First.name, Surname)%>%
  summarise(total_goals=sum(Goals))

## # A tibble: 52,466 x 4
## # Groups:   Season, First.name [?]
##    Season First.name Surname   total_goals
##     <int> <fct>      <fct>           <int>
##  1   1897 Alb        Thomas              0
##  2   1897 Alby       Patterson           0
##  3   1897 Alby       Stamp               0
##  4   1897 Alby       Tame                0
##  5   1897 Alec       Sloan               0
##  6   1897 Alex       Davidson            0
##  7   1897 Alex       Murdoch             0
##  8   1897 Alf        Bedford             0
##  9   1897 Alf        Healing             0
## 10   1897 Alf        Pontin              1
## # ... with 52,456 more rows
…
