…
##   TG TB  accuracy
## 1 25 11 0.6944444

This shouldn’t surprise us, to put in perspective just how good Luke Breusts raw accuracy is lets create a table ranking players by accuracy over the years. Where not surprisingly he comes out as top of the list, while the mean accuracy of that group is 0.6369235. So it should be no surprise that Lukes accuracy was not sustainable

fitzRoy::afldata%>%
  select(First.name, Surname, Playing.for, Season, ID, Goals,Behinds)%>%
  group_by(First.name, Surname, Playing.for, Season, ID)%>%
  summarise(TG=sum(Goals),TB=sum(Behinds))%>%
  mutate(accuracy=(TG/(TG+TB)))%>%
  filter(TG>49 & Season>1964)%>%
  arrange(desc(accuracy)) 

## # A tibble: 491 x 8
## # Groups:   First.name, Surname, Playing.for, Season [491]
##    First.name Surname    Playing.for     Season    ID    TG    TB accuracy
##    <fct>      <fct>      <fct>            <int> <int> <int> <int>    <dbl>
##  1 Luke       Breust     Hawthorn          2014 11954    57    12    0.826
##  2 Stephen    Milne      St Kilda          2002   978    50    11    0.820
##  3 Tony       Lockett    St Kilda          1993   990    53    12    0.815
##  4 Tory       Dickson    Western Bulldo~   2015 12043    50    12    0.806
##  5 Matthew    Lloyd      Essendon          2008   336    62    16    0.795
##  6 Barry      Richardson Richmond          1971  2414    50    13    0.794
##  7 Tony       Lockett    St Kilda          1985   990    79    22    0.782
##  8 George     Young      St Kilda          1978  2299    70    21    0.769
##  9 Peter      Hudson     Hawthorn          1970  1822   146    44    0.768
## 10 Tony       Lockett    St Kilda          1989   990    78    24    0.765
## # ... with 481 more rows
