…
## -- Conflicts ----------------------------------- tidyverse_conflicts() --
## x dplyr::filter() masks stats::filter()
## x dplyr::lag()    masks stats::lag()

fitzRoy::player_stats%>%
  filter(Season==2017 & Team=="Adelaide")%>%
  select(Player, SI, G, B, Round)%>%
  group_by(Round)%>%
  mutate(SIT=SI/((sum(G)+sum(B))))%>%
  group_by(Player)%>%
  summarise(averageSIT=mean(SIT))%>%
  arrange(desc(averageSIT))  

## # A tibble: 31 x 2
##    Player          averageSIT
##    <chr>                <dbl>
##  1 Taylor Walker        0.323
##  2 Tom Lynch            0.300
##  3 Matt Crouch          0.293
##  4 Eddie Betts          0.285
##  5 Rory Sloane          0.272
##  6 Josh Jenkins         0.254
##  7 Mitch McGovern       0.252
##  8 Richard Douglas      0.234
##  9 Brad Crouch          0.227
## 10 Sam Jacobs           0.224
## # ... with 21 more rows
…
Could be a coding issue? Could be an interpretation issue, or could be something else entirely.

The first thing we could do is do a quick check either manually (checking footywire)

To do this we would run just this part of the script above

fitzRoy::player_stats%>%
  filter(Season==2017 & Team=="Adelaide")%>%
  select(Player, SI, G, B, Round)%>%
  group_by(Round)%>%
  mutate(TG=sum(G), TB=sum(B))%>%
  mutate(SIT=SI/((sum(G)+sum(B))))

## # A tibble: 550 x 8
## # Groups:   Round [25]
##    Player             SI     G     B Round      TG    TB   SIT
##    <chr>           <int> <int> <int> <chr>   <int> <int> <dbl>
##  1 Rory Laird         10     0     0 Round 1    22    13 0.286
##  2 Matt Crouch         8     0     0 Round 1    22    13 0.229
##  3 Richard Douglas     9     2     0 Round 1    22    13 0.257
##  4 Rory Sloane        10     0     0 Round 1    22    13 0.286
##  5 Charlie Cameron    11     2     3 Round 1    22    13 0.314
##  6 Wayne Milera        6     1     0 Round 1    22    13 0.171
##  7 David MacKay       15     1     0 Round 1    22    13 0.429
##  8 Josh Jenkins       12     3     3 Round 1    22    13 0.343
##  9 Brodie Smith       10     1     2 Round 1    22    13 0.286
## 10 Rory Atkins         8     3     0 Round 1    22    13 0.229
## # ... with 540 more rows
…
## [1] 0.2857143

Looking at the page though, we didn’t include the rushed behinds! Perhaps this is the missing data that will get our numbers to align.

One last check before we check if its rushed behinds. Lets make sure we are looking at the right amount of games.

fitzRoy::player_stats%>%
    filter(Season==2017 & Team=="Adelaide")%>%
    select(Player, SI, G, B, Round)%>%
    group_by(Round)%>%
    mutate(SIT=SI/((sum(G)+sum(B))))%>%
    group_by(Player)%>%
    tally()

## # A tibble: 31 x 2
##    Player              n
##    <chr>           <int>
##  1 Alex Keath          6
##  2 Andy Otten         19
##  3 Brad Crouch        20
##  4 Brodie Smith       23
##  5 Charlie Cameron    24
##  6 Curtly Hampton      9
##  7 Daniel Talia       24
##  8 David MacKay       22
##  9 Eddie Betts        24
## 10 Hugh Greenwood     15
## # ... with 21 more rows
…
df5<-rbind(df4,df3)

df6<-inner_join(df,df5, by=c("Team","Date"))

df6%>%filter(Team=="Adelaide")%>%
  select(Player, SI, Goals, Behinds, Round.x)%>%
  group_by(Round.x)%>%
  mutate(SIT=SI/(((Goals)+(Behinds))))%>%
  group_by(Player)%>%
  summarise(averageSIT=mean(SIT))%>%
  arrange(desc(averageSIT))

## # A tibble: 31 x 2
##    Player          averageSIT
##    <chr>                <dbl>
##  1 Taylor Walker        0.291
##  2 Tom Lynch            0.268
##  3 Matt Crouch          0.261
##  4 Eddie Betts          0.257
##  5 Rory Sloane          0.243
##  6 Mitch McGovern       0.234
##  7 Josh Jenkins         0.227
##  8 Richard Douglas      0.211
##  9 Brad Crouch          0.202
## 10 Sam Jacobs           0.199
## # ... with 21 more rows
…
