…
## -- Conflicts ------------------------------------------------------ tidyverse_conflicts() --
## x dplyr::filter() masks stats::filter()
## x dplyr::lag()    masks stats::lag()

fitzRoy::player_stats%>%
    filter(Season>2014 & Season<2018)%>%
    select(-Player)%>%
    group_by(Date,Season, Round, Team, Status, Opposition, Venue, Match_id)%>%
    summarise_all(.funs = sum)%>%
group_by(Match_id)%>%
  arrange(Match_id)%>%
  mutate(diff_cp=c(-diff(CP), diff(CP)))

## # A tibble: 1,240 x 43
## # Groups:   Match_id [620]
##    Date       Season Round  Team    Status Opposition Venue Match_id    CP
##    <date>      <dbl> <chr>  <chr>   <chr>  <chr>      <chr>    <dbl> <int>
##  1 2015-04-02   2015 Round~ Carlton Home   Richmond   MCG       5964   127
##  2 2015-04-02   2015 Round~ Richmo~ Away   Carlton    MCG       5964   121
##  3 2015-04-04   2015 Round~ Gold C~ Away   Melbourne  MCG       5965   136
##  4 2015-04-04   2015 Round~ Melbou~ Home   Gold Coast MCG       5965   150
##  5 2015-04-04   2015 Round~ Essend~ Away   Sydney     ANZ ~     5966   150
##  6 2015-04-04   2015 Round~ Sydney  Home   Essendon   ANZ ~     5966   176
##  7 2015-04-04   2015 Round~ Brisba~ Home   Collingwo~ Gabba     5967   152
##  8 2015-04-04   2015 Round~ Collin~ Away   Brisbane   Gabba     5967   165
##  9 2015-04-04   2015 Round~ West C~ Away   Western B~ Etih~     5968   137
## 10 2015-04-04   2015 Round~ Wester~ Home   West Coast Etih~     5968   156
## # ... with 1,230 more rows, and 34 more variables: UP <int>, ED <int>,
## #   DE <dbl>, CM <int>, GA <int>, MI5 <int>, One.Percenters <int>,
## #   BO <int>, TOG <int>, K <int>, HB <int>, D <int>, M <int>, G <int>,
## #   B <int>, T <int>, HO <int>, GA1 <int>, I50 <int>, CL <int>, CG <int>,
## #   R50 <int>, FF <int>, FA <int>, AF <int>, SC <int>, CCL <int>,
## #   SCL <int>, SI <int>, MG <int>, TO <int>, ITC <int>, T5 <int>,
## #   diff_cp <int>

fitzRoy::player_stats%>%
         filter(Season>2014 & Season<2018)%>%
         select(-Player,-Date)%>%
         group_by(Season, Round, Team, Status, Opposition, Venue, Match_id)%>%
         summarise_all(.funs = sum)%>%
         group_by(Match_id)%>%
         arrange(Match_id)%>%
         mutate_if(is.numeric, funs(difference=c(-diff(.), diff(.))))

## # A tibble: 1,240 x 76
## # Groups:   Match_id [620]
##    Season Round  Team   Status Opposition Venue Match_id    CP    UP    ED
##     <dbl> <chr>  <chr>  <chr>  <chr>      <chr>    <dbl> <int> <int> <int>
##  1   2015 Round~ Carlt~ Home   Richmond   MCG       5964   127   199   233
##  2   2015 Round~ Richm~ Away   Carlton    MCG       5964   121   227   273
##  3   2015 Round~ Gold ~ Away   Melbourne  MCG       5965   136   165   203
##  4   2015 Round~ Melbo~ Home   Gold Coast MCG       5965   150   198   246
##  5   2015 Round~ Essen~ Away   Sydney     ANZ ~     5966   150   171   226
##  6   2015 Round~ Sydney Home   Essendon   ANZ ~     5966   176   192   248
##  7   2015 Round~ Brisb~ Home   Collingwo~ Gabba     5967   152   211   246
##  8   2015 Round~ Colli~ Away   Brisbane   Gabba     5967   165   179   231
##  9   2015 Round~ West ~ Away   Western B~ Etih~     5968   137   236   278
## 10   2015 Round~ Weste~ Home   West Coast Etih~     5968   156   214   275
## # ... with 1,230 more rows, and 66 more variables: DE <dbl>, CM <int>,
## #   GA <int>, MI5 <int>, One.Percenters <int>, BO <int>, TOG <int>,
## #   K <int>, HB <int>, D <int>, M <int>, G <int>, B <int>, T <int>,
## #   HO <int>, GA1 <int>, I50 <int>, CL <int>, CG <int>, R50 <int>,
## #   FF <int>, FA <int>, AF <int>, SC <int>, CCL <int>, SCL <int>,
## #   SI <int>, MG <int>, TO <int>, ITC <int>, T5 <int>,
## #   Season_difference <dbl>, CP_difference <int>, UP_difference <int>,
## #   ED_difference <int>, DE_difference <dbl>, CM_difference <int>,
## #   GA_difference <int>, MI5_difference <int>,
…
