…
Some interesting things you might want to do now you have the script and data, you might want to see which pair has played the most together for each team.

Something you might also want to do is look the games that they played together in.

df_data%>%
  filter(name %in% c("David Mundy", "Matthew Pavlich")) %>%
  group_by(matchID)%>%
  count(n=n())%>%
  filter(n==2)

## # A tibble: 226 x 3
## # Groups:   matchID [226]
##    matchID                                n    nn
##    <chr>                              <int> <int>
##  1 2005 10 Geelong Fremantle              2     2
##  2 2005 11 Fremantle Brisbane Lions       2     2
##  3 2005 12 Sydney Fremantle               2     2
##  4 2005 13 Fremantle North Melbourne      2     2
##  5 2005 14 Adelaide Fremantle             2     2
##  6 2005 15 Fremantle Western Bulldogs     2     2
##  7 2005 16 Carlton Fremantle              2     2
##  8 2005 17 Fremantle Melbourne            2     2
##  9 2005 18 Collingwood Fremantle          2     2
## 10 2005 19 Fremantle Richmond             2     2
## # … with 216 more rows
