…
## ── Conflicts ──────────────────────────────────────────────────────────── tidyverse_conflicts() ──
## ✖ dplyr::filter() masks stats::filter()
## ✖ dplyr::lag()    masks stats::lag()

fitzRoy::player_stats%>%
  filter(Season==2018)%>%
  group_by(Player)%>%
  summarise(meanCP=mean(CP))%>%
  arrange(desc(meanCP))

## # A tibble: 657 x 2
##    Player              meanCP
##    <chr>                <dbl>
##  1 Patrick Cripps        17.6
##  2 Tom Mitchell          16.2
##  3 Clayton Oliver        16.2
##  4 Nathan Fyfe           16.1
##  5 Ben Cunnington        15.5
##  6 Patrick Dangerfield   15  
##  7 Lachie Neale          15.0
##  8 Josh P. Kennedy       13.7
##  9 Jarryd Lyons          13.6
## 10 Jack Viney            13.5
## # … with 647 more rows
…
##    Min. 1st Qu.  Median    Mean 3rd Qu.    Max. 
##    3249    3299    3300    3300    3302    3331

So we can see the mean and the median are the same.

Lets see how what % of supercoach scores does Tom Mitchell get per game on average and how does that compare?

fitzRoy::player_stats%>%
    group_by(Match_id)%>%
    mutate(pertSC=SC/sum(SC))%>%
    group_by(Season, Player)%>%
    summarise(mean=100*mean(pertSC))%>%
  arrange(desc(mean))

## # A tibble: 5,851 x 3
## # Groups:   Season [9]
##    Season Player               mean
##     <dbl> <chr>               <dbl>
##  1   2012 Gary Jnr Ablett      4.19
##  2   2014 Gary Jnr Ablett      4.14
##  3   2017 Patrick Dangerfield  4.07
##  4   2014 Tom Rockliff         4.00
##  5   2016 Patrick Dangerfield  4.00
##  6   2010 Brendon Goddard      3.97
##  7   2018 Brodie Grundy        3.95
##  8   2011 Scott Pendlebury     3.93
##  9   2013 Gary Jnr Ablett      3.91
## 10   2018 Tom Mitchell         3.90
## # … with 5,841 more rows
…
But thats since 2010, what about just in the 2018 season?

fitzRoy::player_stats%>%
        filter(Season==2018)%>%
      group_by(Match_id)%>%
    mutate(pertSC=SC/sum(SC))%>%
    group_by(Season, Player)%>%
    summarise(mean=100*mean(pertSC))%>%
  arrange(desc(mean))

## # A tibble: 657 x 3
## # Groups:   Season [1]
##    Season Player               mean
##     <dbl> <chr>               <dbl>
##  1   2018 Brodie Grundy        3.95
##  2   2018 Tom Mitchell         3.90
##  3   2018 Jackson Macrae       3.85
##  4   2018 Max Gawn             3.78
##  5   2018 Patrick Dangerfield  3.63
##  6   2018 Patrick Cripps       3.62
##  7   2018 Nathan Fyfe          3.45
##  8   2018 Clayton Oliver       3.44
##  9   2018 Lachie Neale         3.39
## 10   2018 Jake Lloyd           3.35
## # … with 647 more rows
…
