…
From here we can see that not all the team names are aligned so we need to fix them up, as an example we have the Adelaide Crows in 2017 and Adelaide in 2018. When we try and join to Squiggle we will miss out some games in 2017 because its trying to match Adelaide (from squiggle) with Adelaide Crows from betfair.

To confirm this we can use below

df_bookie%>%filter(Team %in% c("Adelaide Crows", "Adelaide"))

## # A tibble: 28 x 3
##    Date       Team           WAP               
##    <date>     <chr>          <chr>             
##  1 2017-04-01 Adelaide Crows 1.8413133095902039
##  2 2017-04-15 Adelaide Crows 1.1876003204498842
##  3 2017-04-22 Adelaide Crows 1.2818905566923648
##  4 2017-05-06 Adelaide Crows 1.1829114641026119
##  5 2017-05-13 Adelaide Crows 1.1650166582850383
##  6 2017-05-20 Adelaide Crows 1.0862776082495305
##  7 2017-05-27 Adelaide Crows 1.19012452955724  
##  8 2017-06-02 Adelaide Crows 1.817133213487137 
##  9 2017-06-09 Adelaide Crows 1.1764993689503755
## 10 2017-06-22 Adelaide Crows 1.116772609240404 
## # ... with 18 more rows

inner_join(df_bookie,df3, by=c("Team","Date"))%>%
  filter(Team %in% c("Adelaide Crows", "Adelaide"))

## # A tibble: 117 x 12
##    Date       Team   WAP    source  correct hconfidence margin   err tip  
##    <date>     <chr>  <chr>  <chr>     <int>       <dbl>  <dbl> <dbl> <chr>
##  1 2018-04-07 Adela~ 1.364~ Squigg~       1        31     24    25   Adel~
##  2 2018-04-07 Adela~ 1.364~ Aggreg~       1        33.7   16.7  32.3 Adel~
##  3 2018-04-07 Adela~ 1.364~ The Arc       1        34.8   14    35   Adel~
##  4 2018-04-07 Adela~ 1.364~ Punters       1        27.1   NA    NA   Adel~
##  5 2018-04-07 Adela~ 1.364~ Graft         1        29.1   21    28   Adel~
##  6 2018-04-07 Adela~ 1.364~ PlusSi~       1        42.2   12    37   Adel~
##  7 2018-04-07 Adela~ 1.364~ Matter~       1        31.1   18.9  30.1 Adel~
##  8 2018-04-07 Adela~ 1.364~ Footy ~       1        33     22    27   Adel~
##  9 2018-04-07 Adela~ 1.364~ Live L~       1        38.2   11    38   Adel~
## 10 2018-04-07 Adela~ 1.364~ Stattr~       1        40.3   11    38   Adel~
## # ... with 107 more rows, and 3 more variables: round <int>, year <int>,
## #   H_A <chr>
…
That tells me Footy Maths institute had the most winning underdog bets, but just how many times did they have to bet?

df_joined%>%filter(WAP>2  & Team==tip)%>%
  group_by(source, correct)%>%
  summarise(count=n())%>%
  arrange(desc(count))

## # A tibble: 27 x 3
## # Groups:   source [14]
##    source                correct count
##    <chr>                   <int> <int>
##  1 The Arc                     0    15
##  2 Matter of Stats             0    13
##  3 Footy Maths Institute       1    12
##  4 PlusSixOne                  0    12
##  5 Footy Maths Institute       0    11
##  6 Graft                       0    11
##  7 Matter of Stats             1    11
##  8 Figuring Footy              1     9
##  9 PlusSixOne                  1     9
## 10 Stattraction                0     9
## # ... with 17 more rows
