Make Your Own AFL Graph
…
Getting data in the right format

What do I actually want to visualise here?

I would like to see the data for this year 2018 filter(year>2017) that shows me for a given round and tipster group_by(round, source) of the squiggle tipsters by round and tipster their average MAE for that round by said tipster summarise(MAE_by_round=mean(err))

 tips%>%
  filter(year>2017)%>%
   group_by(round, source)%>%
   summarise(MAE_by_round=mean(err))

## # A tibble: 189 x 3
## # Groups:   round [?]
##    round source                MAE_by_round
##    <int> <chr>                        <dbl>
##  1     1 Aggregate                     21.2
##  2     1 Footy Maths Institute         26  
##  3     1 Graft                         20.1
##  4     1 HPN                           31.7
##  5     1 Live Ladders                  20.8
##  6     1 Matter of Stats               24.4
##  7     1 PlusSixOne                    19.7
##  8     1 Punters                       NA  
##  9     1 Squiggle                      22  
## 10     1 Stattraction                  21.8
## # ... with 179 more rows
…
