…
Note that each row is a ‘player match’ so the first few columns are just repeated team level data. It is probably more intersting to look at specific columns relating to player stats.

dat %>% 
  select(Date, First.name, Surname, Playing.for, Contested.Possessions, 
         Uncontested.Possessions, One.Percenters, Time.on.Ground.., 
         Brownlow.Votes)

## Adding missing grouping variables: `Season`, `Round`, `Home.team`, `Away.team`

## # A tibble: 8,712 x 13
## # Groups:   Season, Round, Home.team, Away.team [198]
##    Season Round Home.team Away.team Date       First.name Surname 
##     <dbl> <chr> <chr>     <chr>     <date>     <chr>      <chr>   
##  1   2018 1     Richmond  Carlton   2018-03-22 David      Astbury 
##  2   2018 1     Richmond  Carlton   2018-03-22 Shai       Bolton  
##  3   2018 1     Richmond  Carlton   2018-03-22 Dan        Butler  
##  4   2018 1     Richmond  Carlton   2018-03-22 Josh       Caddy   
##  5   2018 1     Richmond  Carlton   2018-03-22 Jason      Castagna
##  6   2018 1     Richmond  Carlton   2018-03-22 Reece      Conca   
##  7   2018 1     Richmond  Carlton   2018-03-22 Trent      Cotchin 
##  8   2018 1     Richmond  Carlton   2018-03-22 Shane      Edwards 
##  9   2018 1     Richmond  Carlton   2018-03-22 Brandon    Ellis   
## 10   2018 1     Richmond  Carlton   2018-03-22 Corey      Ellis   
## # ... with 8,702 more rows, and 6 more variables: Playing.for <chr>,
## #   Contested.Possessions <dbl>, Uncontested.Possessions <dbl>,
## #   One.Percenters <dbl>, Time.on.Ground.. <int>, Brownlow.Votes <dbl>
…
