…
df1%>%
  filter(HO>0)%>%
  group_by(Player)%>%
  summarise(averageSC=mean(SC))%>%
  arrange(desc(averageSC))

## # A tibble: 108 x 2
##    Player             averageSC
##    <chr>                  <dbl>
##  1 Nathan Fyfe             135.
##  2 Joel Selwood            135 
##  3 Michael Walters         132 
##  4 Max Gawn                129.
##  5 Brodie Grundy           126.
##  6 Oliver Wines            120 
##  7 Trent Cotchin           114.
##  8 Marcus Bontempelli      110.
##  9 Scott Pendlebury        109 
## 10 Justin Westhoff         107.
## # ... with 98 more rows
…
