…
## v ggplot2 2.2.1     v purrr   0.2.5
## v tibble  1.4.2     v dplyr   0.7.5
## v tidyr   0.8.1     v stringr 1.3.0
## v readr   1.1.1     v forcats 0.3.0

## -- Conflicts ----------------------------------- tidyverse_conflicts() --
## x dplyr::filter() masks stats::filter()
## x dplyr::lag()    masks stats::lag()

df<-fitzRoy::afldata 
df%>% 
  filter(Season==2016)%>% 
  group_by(First.name , Surname, Playing.for)%>% summarise(brownlowvotes=sum(Brownlow.Votes))

## # A tibble: 656 x 4
## # Groups:   First.name, Surname [?]
##    First.name Surname    Playing.for            brownlowvotes
##    <fct>      <fct>      <fct>                          <int>
##  1 Aaron      Francis    Essendon                           0
##  2 Aaron      Hall       Gold Coast                        11
##  3 Aaron      Mullett    North Melbourne                    0
##  4 Aaron      Sandilands Fremantle                          0
##  5 Aaron      Vandenberg Melbourne                          0
##  6 Aaron      Young      Port Adelaide                      5
##  7 Adam       Cooney     Essendon                           4
##  8 Adam       Kennedy    Greater Western Sydney             0
##  9 Adam       Marcon     Richmond                           0
## 10 Adam       Oxley      Collingwood                        0
## # ... with 646 more rows
…
When looking at example plots like the one above, I like to think about it in terms of how can I do the same thing but for footy and how would my variables/values/observations change.

So if I wanted to do the same plot but for footy ruckman, I would change the city axis to be ruckman, the gender variable to be years I want to compare and to be measured on the same values I would use say SC scores.

So lets get the top 10 ruckman in 2016 and see how they stack up their versions of themselves today. A quick way to get actual ruckman is to just increase the number of HOs in the filter to an arbirary number you think captures the main ruck I went 15 but you could choose a higher or lower number yourselves.

df2%>%
  filter(Season==2016)%>%
  filter(HO>15)%>%
  group_by(Player)%>%
  summarise(ave.SC=mean(SC))%>%
  arrange(desc(ave.SC))

## # A tibble: 47 x 2
##    Player            ave.SC
##    <chr>              <dbl>
##  1 Max Gawn           119. 
##  2 Todd Goldstein     109. 
##  3 Nicholas Naitanui  106. 
##  4 Jackson Trengove    99.6
##  5 Shane Mumford       97.3
##  6 Brodie Grundy       94.1
##  7 Archie Smith        93  
##  8 Scott Lycett        92.5
##  9 Sam Jacobs          91.0
## 10 Stefan Martin       90.3
## # ... with 37 more rows
…
