…
Looking at this graph, it would seem as though if we used 2000 as a cut off, that would be fine as all our data is being collected then. What we don’t want there to be an example of, is a statistic like meters gained that was only started to be tracked in 2007.

Next what we want to do now that we have the fantasy scores and a rough timeline of when it makes sense that all our data is being collected lets see the average fantasy scores by player and year.

dataframe%>%
  mutate(fantasy_score=
           3*Kicks +2*Handballs+ 3*Marks +4*Tackles+Frees.For -
           3*Frees.Against+Hit.Outs+6*Goals+Behinds)%>%
  group_by(Season, First.name, Surname, ID)%>%
  summarise(meanFS=mean(fantasy_score))%>%
  filter(Season>2000)

## # A tibble: 10,933 x 5
## # Groups:   Season, First.name, Surname [10,879]
##    Season First.name Surname     ID meanFS
##     <dbl> <chr>      <chr>    <dbl>  <dbl>
##  1   2001 Aaron      Fiora      911   34.6
##  2   2001 Aaron      Hamill     171   71.4
##  3   2001 Aaron      Henneman   362   32.9
##  4   2001 Aaron      Lord       574   48.7
##  5   2001 Aaron      Shattock  1093   31.3
##  6   2001 Adam       Contessa   457   49.9
##  7   2001 Adam       Goodes    1012   71.5
##  8   2001 Adam       Houlihan   593   54.7
##  9   2001 Adam       Hunter    1072   23.3
## 10   2001 Adam       Kingsley   825   66.9
## # … with 10,923 more rows

But! We know that with AFL fantasy we don’t want to include finals that’s because finals aren’t included in the competition so lets exclude finals.

dataframe%>%
  mutate(fantasy_score=
           3*Kicks +2*Handballs+ 3*Marks +4*Tackles+Frees.For -
           3*Frees.Against+Hit.Outs+6*Goals+Behinds)%>%
  filter(!(Round %in% c("EF", "PF", "SF","GF","QF")))%>%
  group_by(Season, First.name, Surname, ID)%>%
  summarise(meanFS=mean(fantasy_score))%>%
  filter(Season>2000)%>%arrange(desc(meanFS))

## # A tibble: 10,926 x 5
## # Groups:   Season, First.name, Surname [10,872]
##    Season First.name Surname        ID meanFS
##     <dbl> <chr>      <chr>       <dbl>  <dbl>
##  1   2014 Tom        Rockliff    11787   135.
##  2   2012 Dane       Swan         1460   134.
##  3   2018 Tom        Mitchell    12196   129.
##  4   2017 Tom        Mitchell    12196   127.
##  5   2012 Gary       Ablett       1105   125.
##  6   2010 Dane       Swan         1460   123.
##  7   2018 Jack       Macrae      12166   123.
##  8   2011 Dane       Swan         1460   121.
##  9   2017 Patrick    Dangerfield 11700   121.
## 10   2018 Brodie     Grundy      12217   120 
## # … with 10,916 more rows
…
Lets now look at Sam Powell Pepper vs Dustin Martin comparisons.

First lets find their player Ids

dataframe%>%
    mutate(fantasy_score=
               3*Kicks +2*Handballs+ 3*Marks +4*Tackles+Frees.For -
               3*Frees.Against+Hit.Outs+6*Goals+Behinds)%>%
    filter(!(Round %in% c("EF", "PF", "SF","GF","QF")))%>%
    filter(Surname =="Powell-Pepper")%>%select(ID)

## # A tibble: 37 x 1
##       ID
##    <dbl>
##  1 12494
##  2 12494
##  3 12494
##  4 12494
##  5 12494
##  6 12494
##  7 12494
##  8 12494
##  9 12494
## 10 12494
## # … with 27 more rows

dataframe%>%
    mutate(fantasy_score=
               3*Kicks +2*Handballs+ 3*Marks +4*Tackles+Frees.For -
               3*Frees.Against+Hit.Outs+6*Goals+Behinds)%>%
    filter(!(Round %in% c("EF", "PF", "SF","GF","QF")))%>%
    filter(Surname =="Martin", First.name=="Dustin")%>%select(ID)

## # A tibble: 193 x 1
##       ID
##    <dbl>
##  1 11794
##  2 11794
##  3 11794
##  4 11794
##  5 11794
##  6 11794
##  7 11794
##  8 11794
##  9 11794
## 10 11794
## # … with 183 more rows
…
